{
    "title" : "博客",
    "plugins": [
        "-lunr",
        "-search",
        "-search-plus",
        "splitter",
        "-copy-code-button",
        "expandable-chapters-small",
        "theme-comscore",
        "disqus",
        "toc"
    ],
    "pluginsConfig": {
        "disqus": {
            "shortName": "gitbook-tutorial"
        },
        "toc": {
            "addClass": true,
            "className": "toc"
        }
    },
    "styles": {
        "website": "styles/website.css"
    }
}