{
    "title" : "博客",
    "plugins": [
        "-lunr",
        "-search",
        "-search-plus",
        "splitter",
        "-copy-code-button",
        "expandable-chapters-small",
        "theme-comscore",
        "disqus"
    ],
    "pluginsConfig": {
        "disqus": {
            "shortName": "gitbook-tutorial"
        }
    },
    "styles": {
        "website": "styles/website.css"
    }
}